"timeMillisSpent","score"
1576,"0hard/-5267soft"
1675,"0hard/-4913soft"
1768,"0hard/-4900soft"
1859,"0hard/-4847soft"
1946,"0hard/-4678soft"
3526,"0hard/-4396soft"
4016,"0hard/-4393soft"
4070,"0hard/-4340soft"
4928,"0hard/-4324soft"
5643,"0hard/-4060soft"
5747,"0hard/-3891soft"
5799,"0hard/-3863soft"
6830,"0hard/-3845soft"
8048,"0hard/-3803soft"
8249,"0hard/-3785soft"
